…
``` r
query("hash://sha256/9412325831dab22aeebdd674b6eb53ba6b7bdd04bb99a4dbb21ddff646287e37")
#> # A tibble: 24 x 3
#>    identifier                     source                     date               
#>    <chr>                          <chr>                      <dttm>             
#>  1 hash://sha256/9412325831dab22… https://archive.softwareh… 2020-03-05 06:30:33
#>  2 hash://sha256/9412325831dab22… https://zenodo.org/record… 2020-03-04 20:40:40
#>  3 hash://sha256/9412325831dab22… http://cdiac.ornl.gov/ftp… 2020-03-04 18:22:21
#>  4 hash://sha256/9412325831dab22… https://zenodo.org/record… 2020-03-03 04:00:26
#>  5 hash://sha256/9412325831dab22… https://zenodo.org/record… 2020-03-02 00:14:21
#>  6 hash://sha256/9412325831dab22… https://zenodo.org/record… 2020-02-29 20:16:09
#>  7 hash://sha256/9412325831dab22… https://zenodo.org/record… 2020-02-28 20:12:54
#>  8 hash://sha256/9412325831dab22… http://cdiac.ornl.gov/ftp… 2020-02-28 01:59:29
#>  9 hash://sha256/9412325831dab22… https://zenodo.org/record… 2020-02-26 19:16:18
#> 10 hash://sha256/9412325831dab22… https://zenodo.org/record… 2020-02-24 23:07:17
#> # … with 14 more rows
```
…
We can also store and register content locally following this same
scheme.

``` r
store(co2_url)
#> [1] "hash://sha256/9412325831dab22aeebdd674b6eb53ba6b7bdd04bb99a4dbb21ddff646287e37"
```

Now when we query for the hash, we see a local storage location as
well:

``` r
query("hash://sha256/9412325831dab22aeebdd674b6eb53ba6b7bdd04bb99a4dbb21ddff646287e37")
#> # A tibble: 25 x 3
#>    identifier                     source                     date               
#>    <chr>                          <chr>                      <dttm>             
#>  1 hash://sha256/9412325831dab22… https://archive.softwareh… 2020-03-05 06:30:33
#>  2 hash://sha256/9412325831dab22… https://zenodo.org/record… 2020-03-04 20:40:40
#>  3 hash://sha256/9412325831dab22… http://cdiac.ornl.gov/ftp… 2020-03-04 18:22:21
#>  4 hash://sha256/9412325831dab22… https://zenodo.org/record… 2020-03-03 04:00:26
#>  5 hash://sha256/9412325831dab22… https://zenodo.org/record… 2020-03-02 00:14:21
#>  6 hash://sha256/9412325831dab22… https://zenodo.org/record… 2020-02-29 20:16:09
#>  7 hash://sha256/9412325831dab22… https://zenodo.org/record… 2020-02-28 20:12:54
#>  8 hash://sha256/9412325831dab22… http://cdiac.ornl.gov/ftp… 2020-02-28 01:59:29
#>  9 hash://sha256/9412325831dab22… https://zenodo.org/record… 2020-02-26 19:16:18
#> 10 hash://sha256/9412325831dab22… https://zenodo.org/record… 2020-02-24 23:07:17
#> # … with 15 more rows
```
…
