Provenance For Iterative Forecasts • contentid
…
There’s a lot there, but it’s not too hard to make sense of. We see an Activity, “Running an R script”, generated our "beetle-forecast-null_average.csv.gz" file at "2020-09-11 02:46:34". Crucially, we get an identifier for the precise version of the file generated: "hash://sha256/fb673d3b56a89f49a8b5bbc9a8cbe3c6b57d2971687bef4e50d5d74978124de0". Much like a DOI, we can resolve this identifier back to a source for the file:

forecast_file <- contentid::resolve("hash://sha256/fb673d3b56a89f49a8b5bbc9a8cbe3c6b57d2971687bef4e50d5d74978124de0")
forecast <- vroom::vroom(forecast_file)
forecast

## # A tibble: 253,000 x 6
##    siteID  year month target      rep    value
##    <chr>  <dbl> <chr> <chr>     <dbl>    <dbl>
##  1 BLAN    2019 Apr   abundance     1  0.303  
##  2 BLAN    2019 Apr   abundance     2  0.229  
##  3 BLAN    2019 Apr   abundance     3  0.110  
##  4 BLAN    2019 Apr   abundance     4  0.113  
##  5 BLAN    2019 Apr   abundance     5  0.0536 
##  6 BLAN    2019 Apr   abundance     6  0.196  
##  7 BLAN    2019 Apr   abundance     7  0.00133
##  8 BLAN    2019 Apr   abundance     8  0.187  
##  9 BLAN    2019 Apr   abundance     9 -0.0266 
## 10 BLAN    2019 Apr   abundance    10  0.0869 
## # … with 252,990 more rows
…
